classes = 500
train = ../detector/cfg/yolo31392.train
valid  = ../detector/cfg/yolo31392.valid
names = ../detector/cfg/yolo.names
backup = ../detector/weights/backup
results = ../detector/weights/results

